{
    "Title": "Dilwale",
    "Year": "1990",
    "Rated": "NOT RATED",
    "Released": "22 Jun 1990",
    "Runtime": "172 min",
    "Genre": "Comedy, Drama, Romance",
    "Director": "Indra Kumar",
    "Writer": "Rajeev Kaul (screenplay), Rajeev Kaul (story), Naushir Khatau (story advisor), Kamlesh Pandey (dialogue), Praful Parekh (screenplay), Praful Parekh (story)",
    "Actors": "Aamir Khan, Madhuri Dixit, Saeed Jaffrey, Deven Verma",
    "Plot": "Raja lives a poor lifestyle along with his dad, Hazariprasad and mom. He attends college where he has several run-ins with wealthy fellow-collegian, Madhu Mehra. Matters escalate to such an...",
    "Language": "Hindi",
    "Country": "India",
    "Awards": "1 win & 1 nomination.",
    "Poster": "http://www.indianmusic4u.co.uk/resources/mediacategory/full/13411.jpg",
    "Ratings": [
        {
            "Source": "Internet Movie Database",
            "Value": "6.8/10"
        }
    ],
    "Metascore": "N/A",
    "imdbRating": "6.8",
    "imdbVotes": "3,972",
    "imdbID": "tt0099429",
    "Type": "movie",
    "DVD": "24 Feb 1999",
    "BoxOffice": "N/A",
    "Production": "Saavn",
    "Website": "N/A",
    "Response": "True"
}